…
```r
total_by_day <- data %>%
  group_by(date) %>%
  summarize(sum_steps_by_day = sum(steps, na.rm=T))
total_by_day
```

```
## # A tibble: 61 × 2
##    date       sum_steps_by_day
##    <date>                <int>
##  1 2012-10-01                0
##  2 2012-10-02              126
##  3 2012-10-03            11352
##  4 2012-10-04            12116
##  5 2012-10-05            13294
##  6 2012-10-06            15420
##  7 2012-10-07            11015
##  8 2012-10-08                0
##  9 2012-10-09            12811
## 10 2012-10-10             9900
## # … with 51 more rows
```
Histogram of steps by day

```r
total_by_day <- data %>%
  group_by(date) %>%
  summarize(sum_steps_by_day = sum(steps, na.rm=T))
total_by_day
```

```
## # A tibble: 61 × 2
##    date       sum_steps_by_day
##    <date>                <int>
##  1 2012-10-01                0
##  2 2012-10-02              126
##  3 2012-10-03            11352
##  4 2012-10-04            12116
##  5 2012-10-05            13294
##  6 2012-10-06            15420
##  7 2012-10-07            11015
##  8 2012-10-08                0
##  9 2012-10-09            12811
## 10 2012-10-10             9900
## # … with 51 more rows
```
…
```r
mean_by_day <- data %>%
  group_by(date) %>%
  summarize(mean_steps_by_day = mean(steps, na.rm=T), median_steps_by_day= median(steps, na.rm=T))
mean_by_day
```

```
## # A tibble: 61 × 3
##    date       mean_steps_by_day median_steps_by_day
##    <date>                 <dbl>               <dbl>
##  1 2012-10-01           NaN                      NA
##  2 2012-10-02             0.438                   0
##  3 2012-10-03            39.4                     0
##  4 2012-10-04            42.1                     0
##  5 2012-10-05            46.2                     0
##  6 2012-10-06            53.5                     0
##  7 2012-10-07            38.2                     0
##  8 2012-10-08           NaN                      NA
##  9 2012-10-09            44.5                     0
## 10 2012-10-10            34.4                     0
## # … with 51 more rows
```
…
Histogram of steps by day

```r
total_by_day <- idata %>%
  group_by(date) %>%
  summarize(sum_steps_by_day = sum(steps, na.rm=T))
total_by_day
```

```
## # A tibble: 61 × 2
##    date       sum_steps_by_day
##    <date>                <dbl>
##  1 2012-10-01                0
##  2 2012-10-02              126
##  3 2012-10-03            11352
##  4 2012-10-04            12116
##  5 2012-10-05            13294
##  6 2012-10-06            15420
##  7 2012-10-07            11015
##  8 2012-10-08                0
##  9 2012-10-09            12811
## 10 2012-10-10             9900
## # … with 51 more rows
```
…
```
## `summarise()` has grouped output by 'interval'. You can override using the
## `.groups` argument.
```

```r
isteps_by_interval
```

```
## # A tibble: 576 × 4
## # Groups:   interval [288]
##    interval isWeekend mean_steps_by_interval median_steps_by_interval
##       <int> <fct>                      <dbl>                    <dbl>
##  1        0 Weekday                   2.02                          0
##  2        0 Weekend                   0                             0
##  3        5 Weekday                   0.4                           0
##  4        5 Weekend                   0                             0
##  5       10 Weekday                   0.156                         0
##  6       10 Weekend                   0                             0
##  7       15 Weekday                   0.178                         0
##  8       15 Weekend                   0                             0
##  9       20 Weekday                   0.0889                        0
## 10       20 Weekend                   0                             0
## # … with 566 more rows
```
…
